{
  "development": {
    "username": "postgres",
    "password": "wiradifit1234",
    "database": "db_user_mgt",
    "host": "localhost",
    "dialect": "postgres"
  },
  "test": {
    "username": "postgres",
    "password": "wiradifit1234",
    "database": "db_user_mgt",
    "host": "localhost",
    "dialect": "postgres"
  },
  "production": {
    "use_env_variable": "DATABASE_URL",
    "dialect": "postgres",
    "dialectOptions": {
      "ssl": {
        "require": true,
        "rejectUnauthorized": false
      }
    }
  }
}
